#AccelZeroG_X, AccelZeroG_Y, AccelZeroG_Z
-155.06054687,35.37988281,582.66015625
#AccelResolution_X, AccelResolution_Y, AccelResolution_Z
-0.00058489,-0.00058631,0.00059821
# Mag offsets,,
-5.773,-4.511,-10.744
# Mag transformation matrix,,
1.078,-0.082,-0.005
-0.075,1.074,0.012
0.002,0.019,1.152
#GyroZeroRate_X, GyroZeroRate_Y, GyroZeroRate_Z
12.13999938,-4.11999988,-670.45996093
#GyroResolution_X, GyroResolution_Y, GyroResolution_Z
0.00875,0.00875,0.00875
