#AccelZeroG_X, AccelZeroG_Y, AccelZeroG_Z
-155.06054687,35.37988281,582.66015625
#AccelResolution_X, AccelResolution_Y, AccelResolution_Z
 -0.00058489,-0.00058631,-0.00059821
# Mag offsets,,
-14.90, -3.79, -3.59
# Mag transformation matrix,,
1.001,-0.071,0.013
-0.071,0.969,0.022
0.013,-0.022,1.204
#GyroZeroRate_X, GyroZeroRate_Y, GyroZeroRate_Z = 
12.13999938,-4.11999988,-670.45996093
#GyroResolution_X, GyroResolution_Y, GyroResolution_Z
0.00875,0.00875,0.00875