#AccelZeroG_X, AccelZeroG_Y, AccelZeroG_Z
-1471.58007812,129.64013672,-67.69970703
#AccelResolution_X, AccelResolution_Y, AccelResolution_Z
-0.00060042,-0.00060147,-0.00061087
# Mag offsets,,
-1.61,10.41,6.29
# Mag transformation matrix
0.959,-0.062,-0.014
-0.062,0.996,0.009
-0.014,0.009,1.052
#GyroZeroRate_X, GyroZeroRate_Y, GyroZeroRate_Z = 
49.02000046,259.44000244,293.11999512
#GyroResolution_X, GyroResolution_Y, GyroResolution_Z
0.00875000,0.00875000,0.00875000

